{
 "actions": [],
 "autoname": "field:webhook_name",
 "creation": "2018-05-22 13:20:51.450815",
 "doctype": "DocType",
 "editable_grid": 1,
 "engine": "InnoDB",
 "field_order": [
  "webhook_name",
  "service",
  "webhook_url",
  "add_document_link"
 ],
 "fields": [
  {
   "fieldname": "webhook_name",
   "fieldtype": "Data",
   "in_list_view": 1,
   "label": "Name",
   "reqd": 1,
   "unique": 1
  },
  {
   "fieldname": "webhook_url",
   "fieldtype": "Small Text",
   "in_list_view": 1,
   "label": "Webhook URL",
   "reqd": 1
  },
  {
   "bold": 1,
   "fieldname": "service",
   "fieldtype": "Select",
   "in_global_search": 1,
   "label": "Service",
   "options": "Google Chat\nMattermost\nRocket.Chat\nSlack\nDiscord",
   "reqd": 1
  },
  {
   "default": "1",
   "fieldname": "add_document_link",
   "fieldtype": "Check",
   "label": "Add link to document"
  }
 ],
 "links": [],
 "modified": "2025-01-15 17:29:25.312243",
 "modified_by": "Administrator",
 "module": "Integrations",
 "name": "Incoming Webhook URL",
 "owner": "Administrator",
 "permissions": [
  {
   "create": 1,
   "delete": 1,
   "email": 1,
   "export": 1,
   "print": 1,
   "read": 1,
   "report": 1,
   "role": "System Manager",
   "share": 1,
   "write": 1
  }
 ],
 "quick_entry": 1,
 "sort_field": "creation",
 "sort_order": "DESC",
 "states": [],
 "title_field": "service",
 "track_changes": 1
}
