{
 "actions": [],
 "allow_rename": 1,
 "autoname": "format:{label}-{owner}",
 "beta": 1,
 "creation": "2023-03-05 19:04:16.142710",
 "default_view": "List",
 "doctype": "DocType",
 "editable_grid": 1,
 "engine": "InnoDB",
 "field_order": [
  "is_standard",
  "module",
  "section_break_4",
  "dt",
  "is_public",
  "preview_column",
  "preview_html",
  "section_break_8",
  "header_section",
  "label",
  "icon",
  "show_liked_by_me",
  "show_assigned_to_me",
  "button_section",
  "button_view",
  "button_label",
  "shortcuts_section",
  "rows",
  "advanced_section",
  "condition"
 ],
 "fields": [
  {
   "fieldname": "dt",
   "fieldtype": "Link",
   "in_list_view": 1,
   "label": "Reference DocType",
   "options": "DocType",
   "reqd": 1
  },
  {
   "fieldname": "label",
   "fieldtype": "Data",
   "label": "Title"
  },
  {
   "default": "1",
   "fieldname": "show_liked_by_me",
   "fieldtype": "Check",
   "label": "Show \"Liked By Me\""
  },
  {
   "default": "1",
   "fieldname": "show_assigned_to_me",
   "fieldtype": "Check",
   "label": "Show \"Assigned To Me\""
  },
  {
   "fieldname": "rows",
   "fieldtype": "Table",
   "label": "Shortcuts",
   "options": "Summary Card Row"
  },
  {
   "fieldname": "button_view",
   "fieldtype": "Select",
   "label": "Default View"
  },
  {
   "fieldname": "button_label",
   "fieldtype": "Data",
   "label": "Custom Label"
  },
  {
   "fieldname": "header_section",
   "fieldtype": "Column Break",
   "label": "Header"
  },
  {
   "fieldname": "shortcuts_section",
   "fieldtype": "Section Break",
   "label": "Shortcuts"
  },
  {
   "fieldname": "button_section",
   "fieldtype": "Column Break",
   "label": "Button"
  },
  {
   "fieldname": "preview_html",
   "fieldtype": "HTML"
  },
  {
   "default": "0",
   "fieldname": "is_standard",
   "fieldtype": "Check",
   "label": "Is Standard",
   "no_copy": 1,
   "read_only_depends_on": "eval:!frappe.boot.developer_mode",
   "set_only_once": 1
  },
  {
   "depends_on": "eval:doc.is_standard",
   "fieldname": "module",
   "fieldtype": "Link",
   "label": "Module",
   "mandatory_depends_on": "eval:doc.is_standard",
   "no_copy": 1,
   "options": "Module Def",
   "set_only_once": 1
  },
  {
   "fieldname": "section_break_4",
   "fieldtype": "Section Break"
  },
  {
   "depends_on": "eval:!doc.__islocal",
   "fieldname": "preview_column",
   "fieldtype": "Column Break",
   "label": "Preview"
  },
  {
   "fieldname": "section_break_8",
   "fieldtype": "Section Break"
  },
  {
   "fieldname": "icon",
   "fieldtype": "Icon",
   "label": "Icon"
  },
  {
   "collapsible": 1,
   "fieldname": "advanced_section",
   "fieldtype": "Section Break",
   "label": "Advanced"
  },
  {
   "fieldname": "condition",
   "fieldtype": "Code",
   "label": "Depends On",
   "options": "PythonBlock"
  },
  {
   "default": "0",
   "depends_on": "eval:frappe.perm.has_perm('Summary Card', 1, 'write')",
   "fieldname": "is_public",
   "fieldtype": "Check",
   "label": "Is Public",
   "permlevel": 1
  }
 ],
 "icon": "card",
 "index_web_pages_for_search": 1,
 "links": [],
 "modified": "2023-12-04 16:30:53.887899",
 "modified_by": "Administrator",
 "module": "Desk",
 "name": "Summary Card",
 "naming_rule": "Expression",
 "owner": "Administrator",
 "permissions": [
  {
   "create": 1,
   "delete": 1,
   "email": 1,
   "export": 1,
   "print": 1,
   "read": 1,
   "report": 1,
   "role": "System Manager",
   "select": 1,
   "share": 1,
   "write": 1
  },
  {
   "create": 1,
   "delete": 1,
   "email": 1,
   "export": 1,
   "if_owner": 1,
   "print": 1,
   "read": 1,
   "report": 1,
   "role": "All",
   "select": 1,
   "share": 1,
   "write": 1
  },
  {
   "email": 1,
   "export": 1,
   "permlevel": 1,
   "print": 1,
   "read": 1,
   "report": 1,
   "role": "All",
   "select": 1,
   "share": 1
  },
  {
   "delete": 1,
   "email": 1,
   "export": 1,
   "permlevel": 1,
   "print": 1,
   "read": 1,
   "report": 1,
   "role": "System Manager",
   "select": 1,
   "share": 1,
   "write": 1
  }
 ],
 "sort_field": "modified",
 "sort_order": "DESC",
 "states": [],
 "title_field": "label"
}
