{
 "actions": [],
 "allow_guest_to_view": 1,
 "allow_import": 1,
 "allow_rename": 1,
 "creation": "2013-03-08 09:41:11",
 "doctype": "DocType",
 "document_type": "Setup",
 "engine": "InnoDB",
 "field_order": [
  "published",
  "title",
  "route",
  "preview_image",
  "description"
 ],
 "fields": [
  {
   "fieldname": "title",
   "fieldtype": "Data",
   "in_list_view": 1,
   "label": "Title",
   "no_copy": 1,
   "reqd": 1
  },
  {
   "default": "1",
   "fieldname": "published",
   "fieldtype": "Check",
   "in_list_view": 1,
   "label": "Published"
  },
  {
   "depends_on": "published",
   "fieldname": "route",
   "fieldtype": "Data",
   "label": "Route",
   "read_only": 1,
   "unique": 1
  },
  {
   "fieldname": "description",
   "fieldtype": "Small Text",
   "label": "Description"
  },
  {
   "fieldname": "preview_image",
   "fieldtype": "Attach Image",
   "label": "Preview Image"
  }
 ],
 "has_web_view": 1,
 "icon": "fa fa-tag",
 "idx": 1,
 "index_web_pages_for_search": 1,
 "is_published_field": "published",
 "links": [
  {
   "link_doctype": "Blog Post",
   "link_fieldname": "blog_category"
  }
 ],
 "make_attachments_public": 1,
 "modified": "2024-08-15 19:03:00.345431",
 "modified_by": "Administrator",
 "module": "Website",
 "name": "Blog Category",
 "owner": "Administrator",
 "permissions": [
  {
   "create": 1,
   "delete": 1,
   "email": 1,
   "print": 1,
   "read": 1,
   "report": 1,
   "role": "Website Manager",
   "share": 1,
   "write": 1
  },
  {
   "email": 1,
   "print": 1,
   "read": 1,
   "role": "Blogger"
  }
 ],
 "quick_entry": 1,
 "sort_field": "creation",
 "sort_order": "DESC",
 "states": [],
 "title_field": "title",
 "track_changes": 1
}
