{
 "__unsaved": 1,
 "creation": "2024-02-01 12:00:53.470575",
 "docstatus": 0,
 "doctype": "Web Template",
 "fields": [
  {
   "fieldname": "reference_doctype",
   "fieldtype": "Link",
   "label": "Reference DocType",
   "options": "DocType",
   "reqd": 1
  },
  {
   "fieldname": "_sb1",
   "fieldtype": "Section Break",
   "label": "Section",
   "reqd": 0
  },
  {
   "fieldname": "section_title",
   "fieldtype": "Data",
   "label": "Section Title",
   "reqd": 0
  },
  {
   "fieldname": "primary_action_label",
   "fieldtype": "Data",
   "label": "Primary Action Label",
   "reqd": 0
  },
  {
   "fieldname": "primary_action",
   "fieldtype": "Data",
   "label": "Primary Action URL",
   "reqd": 0
  },
  {
   "fieldname": "_sb2",
   "fieldtype": "Section Break",
   "label": "Field Mapping",
   "reqd": 0
  },
  {
   "__unsaved": 1,
   "fieldname": "_cb1",
   "fieldtype": "Column Break",
   "label": "Heading",
   "reqd": 0
  },
  {
   "default": "image",
   "fieldname": "image_field",
   "fieldtype": "Data",
   "label": "Image Field",
   "reqd": 0
  },
  {
   "fieldname": "title_field",
   "fieldtype": "Data",
   "label": "Title Field",
   "reqd": 0
  },
  {
   "fieldname": "subtitle_field",
   "fieldtype": "Data",
   "label": "Subtitle Field",
   "reqd": 0
  },
  {
   "__unsaved": 1,
   "fieldname": "_cb2",
   "fieldtype": "Column Break",
   "label": "Description",
   "reqd": 0
  },
  {
   "fieldname": "description_field",
   "fieldtype": "Data",
   "label": "Description Field",
   "reqd": 0
  },
  {
   "default": "200",
   "fieldname": "desc_length",
   "fieldtype": "Int",
   "label": "Max Length",
   "reqd": 0
  },
  {
   "fieldname": "footer_field",
   "fieldtype": "Data",
   "label": "Footer",
   "reqd": 0
  },
  {
   "fieldname": "_sb3",
   "fieldtype": "Section Break",
   "label": "Parameters",
   "reqd": 0
  },
  {
   "fieldname": "limit",
   "fieldtype": "Data",
   "label": "Limit",
   "reqd": 0
  },
  {
   "default": "modified desc",
   "fieldname": "sort_field",
   "fieldtype": "Data",
   "label": "Sort Field",
   "reqd": 1
  },
  {
   "fieldname": "filters",
   "fieldtype": "Table Break",
   "label": "Filters",
   "reqd": 0
  },
  {
   "fieldname": "fieldname",
   "fieldtype": "Data",
   "label": "Fieldname",
   "reqd": 0
  },
  {
   "fieldname": "value",
   "fieldtype": "Data",
   "label": "Value",
   "reqd": 0
  }
 ],
 "idx": 18,
 "modified": "2024-02-07 18:18:38.660320",
 "modified_by": "Administrator",
 "module": "Website",
 "name": "Generic Doc Cards",
 "owner": "Administrator",
 "standard": 1,
 "template": "",
 "type": "Section"
}
