{
 "actions": [],
 "allow_rename": 1,
 "autoname": "field:label",
 "beta": 1,
 "creation": "2020-01-23 13:45:59.470592",
 "doctype": "DocType",
 "editable_grid": 1,
 "engine": "InnoDB",
 "field_order": [
  "label",
  "title",
  "sequence_id",
  "for_user",
  "extends_page",
  "parent_page",
  "module",
  "app",
  "type",
  "link_type",
  "link_to",
  "external_link",
  "column_break_3",
  "icon",
  "color",
  "restrict_to_domain",
  "hide_custom",
  "is_standard",
  "public",
  "is_hidden",
  "content",
  "number_cards_tab",
  "number_cards",
  "tab_break_2",
  "charts",
  "tab_break_15",
  "shortcuts",
  "tab_break_18",
  "links",
  "quick_lists_tab",
  "quick_lists",
  "custom_blocks_tab",
  "custom_blocks",
  "roles_tab",
  "roles"
 ],
 "fields": [
  {
   "fieldname": "label",
   "fieldtype": "Data",
   "label": "Name",
   "reqd": 1,
   "unique": 1
  },
  {
   "collapsible": 1,
   "collapsible_depends_on": "charts",
   "depends_on": "eval:doc.type===\"Workspace\"",
   "fieldname": "tab_break_2",
   "fieldtype": "Tab Break",
   "label": "Dashboards"
  },
  {
   "fieldname": "charts",
   "fieldtype": "Table",
   "label": "Charts",
   "options": "Workspace Chart"
  },
  {
   "fieldname": "shortcuts",
   "fieldtype": "Table",
   "label": "Shortcuts",
   "options": "Workspace Shortcut"
  },
  {
   "fieldname": "restrict_to_domain",
   "fieldtype": "Link",
   "label": "Restrict to Domain",
   "options": "Domain",
   "search_index": 1
  },
  {
   "fieldname": "module",
   "fieldtype": "Link",
   "in_list_view": 1,
   "in_standard_filter": 1,
   "label": "Module",
   "options": "Module Def"
  },
  {
   "fieldname": "column_break_3",
   "fieldtype": "Column Break"
  },
  {
   "collapsible": 1,
   "collapsible_depends_on": "shortcuts",
   "depends_on": "eval:doc.type===\"Workspace\"",
   "fieldname": "tab_break_15",
   "fieldtype": "Tab Break",
   "label": "Shortcuts"
  },
  {
   "collapsible": 1,
   "collapsible_depends_on": "links",
   "depends_on": "eval:doc.type===\"Workspace\"",
   "fieldname": "tab_break_18",
   "fieldtype": "Tab Break",
   "label": "Link Cards"
  },
  {
   "fieldname": "for_user",
   "fieldtype": "Data",
   "label": "For User"
  },
  {
   "default": "0",
   "description": "Checking this will hide custom doctypes and reports cards in Links section",
   "fieldname": "hide_custom",
   "fieldtype": "Check",
   "label": "Hide Custom DocTypes and Reports"
  },
  {
   "fieldname": "icon",
   "fieldtype": "Icon",
   "label": "Icon"
  },
  {
   "fieldname": "links",
   "fieldtype": "Table",
   "label": "Links",
   "options": "Workspace Link"
  },
  {
   "default": "0",
   "fieldname": "public",
   "fieldtype": "Check",
   "in_list_view": 1,
   "in_standard_filter": 1,
   "label": "Public",
   "search_index": 1
  },
  {
   "fieldname": "title",
   "fieldtype": "Data",
   "label": "Title",
   "reqd": 1
  },
  {
   "fieldname": "parent_page",
   "fieldtype": "Link",
   "label": "Parent Page",
   "options": "Workspace"
  },
  {
   "default": "[]",
   "fieldname": "content",
   "fieldtype": "Long Text",
   "hidden": 1,
   "label": "Content"
  },
  {
   "fieldname": "sequence_id",
   "fieldtype": "Float",
   "label": "Sequence Id"
  },
  {
   "fieldname": "roles",
   "fieldtype": "Table",
   "label": "Roles",
   "options": "Has Role"
  },
  {
   "fieldname": "roles_tab",
   "fieldtype": "Tab Break",
   "label": "Roles"
  },
  {
   "depends_on": "eval:doc.type===\"Workspace\"",
   "fieldname": "quick_lists_tab",
   "fieldtype": "Tab Break",
   "label": "Quick Lists"
  },
  {
   "fieldname": "quick_lists",
   "fieldtype": "Table",
   "label": "Quick Lists",
   "options": "Workspace Quick List"
  },
  {
   "fieldname": "color",
   "fieldtype": "Color",
   "label": "Color"
  },
  {
   "default": "0",
   "fieldname": "is_hidden",
   "fieldtype": "Check",
   "label": "Is Hidden"
  },
  {
   "default": "0",
   "fieldname": "is_standard",
   "fieldtype": "Check",
   "label": "Is Standard",
   "no_copy": 1
  },
  {
   "depends_on": "eval:doc.is_standard",
   "fieldname": "extends_page",
   "fieldtype": "Link",
   "label": "Extends Page",
   "options": "Workspace"
  },
  {
   "depends_on": "eval:doc.type===\"Workspace\"",
   "fieldname": "number_cards_tab",
   "fieldtype": "Tab Break",
   "label": "Number Cards"
  },
  {
   "fieldname": "number_cards",
   "fieldtype": "Table",
   "label": "Number Cards",
   "options": "Workspace Number Card"
  },
  {
   "depends_on": "eval:doc.type===\"Workspace\"",
   "fieldname": "custom_blocks_tab",
   "fieldtype": "Tab Break",
   "label": "Custom Blocks"
  },
  {
   "fieldname": "custom_blocks",
   "fieldtype": "Table",
   "label": "Custom Blocks",
   "options": "Workspace Custom Block"
  },
  {
   "fieldname": "app",
   "fieldtype": "Data",
   "label": "App"
  },
  {
   "default": "Workspace",
   "fieldname": "type",
   "fieldtype": "Select",
   "label": "Type",
   "options": "Workspace\nLink\nURL",
   "reqd": 1
  },
  {
   "depends_on": "eval:doc.type==\"Link\"",
   "fieldname": "link_type",
   "fieldtype": "Select",
   "label": "Link Type",
   "mandatory_depends_on": "eval:doc.type==\"Link\"",
   "options": "DocType\nPage\nReport"
  },
  {
   "depends_on": "eval:doc.type==\"Link\"",
   "fieldname": "link_to",
   "fieldtype": "Dynamic Link",
   "label": "Link To",
   "mandatory_depends_on": "eval:doc.type==\"Link\"",
   "options": "link_type"
  },
  {
   "depends_on": "eval:doc.type==\"URL\"",
   "fieldname": "external_link",
   "fieldtype": "Data",
   "label": "External Link",
   "mandatory_depends_on": "eval:doc.type==\"URL\"",
   "options": "URL"
  }
 ],
 "in_create": 1,
 "links": [],
 "modified": "2024-09-26 15:47:24.710881",
 "modified_by": "Administrator",
 "module": "Desk",
 "name": "Workspace",
 "naming_rule": "By fieldname",
 "owner": "Administrator",
 "permissions": [
  {
   "create": 1,
   "delete": 1,
   "email": 1,
   "export": 1,
   "print": 1,
   "read": 1,
   "report": 1,
   "role": "Workspace Manager",
   "share": 1,
   "write": 1
  },
  {
   "create": 1,
   "delete": 1,
   "email": 1,
   "export": 1,
   "print": 1,
   "read": 1,
   "report": 1,
   "role": "Desk User",
   "share": 1,
   "write": 1
  }
 ],
 "sort_field": "creation",
 "sort_order": "DESC",
 "states": [],
 "track_changes": 1,
 "translated_doctype": 1
}
