{
 "actions": [],
 "allow_rename": 1,
 "creation": "2024-04-19 15:46:57.993123",
 "doctype": "DocType",
 "editable_grid": 1,
 "engine": "InnoDB",
 "field_order": [
  "table",
  "size"
 ],
 "fields": [
  {
   "fieldname": "table",
   "fieldtype": "Data",
   "in_list_view": 1,
   "label": "Table"
  },
  {
   "fieldname": "size",
   "fieldtype": "Float",
   "in_list_view": 1,
   "label": "Size (MB)"
  }
 ],
 "index_web_pages_for_search": 1,
 "is_virtual": 1,
 "istable": 1,
 "links": [],
 "modified": "2024-04-19 15:46:57.993123",
 "modified_by": "Administrator",
 "module": "Desk",
 "name": "System Health Report Tables",
 "owner": "Administrator",
 "permissions": [],
 "sort_field": "creation",
 "sort_order": "DESC",
 "states": []
}
