{
 "actions": [],
 "creation": "2016-08-29 05:29:16.726172",
 "doctype": "DocType",
 "editable_grid": 1,
 "engine": "InnoDB",
 "field_order": [
  "user"
 ],
 "fields": [
  {
   "fieldname": "user",
   "fieldtype": "Link",
   "in_list_view": 1,
   "label": "User",
   "options": "User",
   "permlevel": 2
  }
 ],
 "istable": 1,
 "links": [],
 "modified": "2024-03-23 16:03:31.419397",
 "modified_by": "Administrator",
 "module": "Desk",
 "name": "Note Seen By",
 "owner": "Administrator",
 "permissions": [],
 "quick_entry": 1,
 "sort_field": "creation",
 "sort_order": "DESC",
 "states": []
}
