{
 "allow_copy": 0,
 "allow_guest_to_view": 0,
 "allow_import": 0,
 "allow_rename": 0,
 "beta": 0,
 "creation": "2017-09-08 16:27:39.195379",
 "custom": 0,
 "docstatus": 0,
 "doctype": "DocType",
 "document_type": "",
 "editable_grid": 1,
 "engine": "InnoDB",
 "fields": [
  {
   "fieldname": "key",
   "fieldtype": "Small Text",
   "in_list_view": 1,
   "label": "Key"
  },
  {
   "fieldname": "value",
   "fieldtype": "Small Text",
   "in_list_view": 1,
   "label": "Value"
  }
 ],
 "istable": 1,
 "links": [],
 "modified": "2024-03-23 16:04:03.419176",
 "modified_by": "Administrator",
 "module": "Integrations",
 "name": "Webhook Header",
 "owner": "Administrator",
 "permissions": [],
 "quick_entry": 1,
 "sort_field": "creation",
 "sort_order": "DESC",
 "states": [],
 "track_changes": 1
}
