{
 "allow_copy": 0,
 "allow_import": 0,
 "allow_rename": 0,
 "beta": 0,
 "creation": "2016-07-15 05:51:29.224123",
 "custom": 0,
 "docstatus": 0,
 "doctype": "DocType",
 "document_type": "",
 "editable_grid": 1,
 "fields": [
  {
   "allow_on_submit": 0,
   "bold": 0,
   "collapsible": 0,
   "columns": 0,
   "fieldname": "document_type",
   "fieldtype": "Link",
   "hidden": 0,
   "ignore_user_permissions": 0,
   "ignore_xss_filter": 0,
   "in_filter": 0,
   "in_list_view": 0,
   "in_standard_filter": 0,
   "label": "Document Type",
   "length": 0,
   "no_copy": 0,
   "options": "DocType",
   "permlevel": 0,
   "precision": "",
   "print_hide": 0,
   "print_hide_if_no_value": 0,
   "read_only": 0,
   "remember_last_selected_value": 0,
   "report_hide": 0,
   "reqd": 1,
   "search_index": 0,
   "set_only_once": 0,
   "unique": 0
  },
  {
   "allow_on_submit": 0,
   "bold": 0,
   "collapsible": 0,
   "columns": 0,
   "fieldname": "field",
   "fieldtype": "Select",
   "hidden": 0,
   "ignore_user_permissions": 0,
   "ignore_xss_filter": 0,
   "in_filter": 0,
   "in_list_view": 0,
   "in_standard_filter": 0,
   "label": "Field",
   "length": 0,
   "no_copy": 0,
   "permlevel": 0,
   "precision": "",
   "print_hide": 0,
   "print_hide_if_no_value": 0,
   "read_only": 0,
   "remember_last_selected_value": 0,
   "report_hide": 0,
   "reqd": 1,
   "search_index": 0,
   "set_only_once": 0,
   "unique": 0
  },
  {
   "allow_on_submit": 0,
   "bold": 0,
   "collapsible": 0,
   "columns": 0,
   "fieldname": "update_value",
   "fieldtype": "Small Text",
   "hidden": 0,
   "ignore_user_permissions": 0,
   "ignore_xss_filter": 0,
   "in_filter": 0,
   "in_list_view": 0,
   "in_standard_filter": 0,
   "label": "Update Value",
   "length": 0,
   "no_copy": 0,
   "permlevel": 0,
   "precision": "",
   "print_hide": 0,
   "print_hide_if_no_value": 0,
   "read_only": 0,
   "remember_last_selected_value": 0,
   "report_hide": 0,
   "reqd": 1,
   "search_index": 0,
   "set_only_once": 0,
   "unique": 0
  },
  {
   "allow_on_submit": 0,
   "bold": 1,
   "collapsible": 0,
   "columns": 0,
   "description": "SQL Conditions. Example: status=\"Open\"",
   "fieldname": "condition",
   "fieldtype": "Small Text",
   "hidden": 0,
   "ignore_user_permissions": 0,
   "ignore_xss_filter": 0,
   "in_filter": 0,
   "in_list_view": 0,
   "in_standard_filter": 0,
   "label": "Condition",
   "length": 0,
   "no_copy": 0,
   "permlevel": 0,
   "precision": "",
   "print_hide": 0,
   "print_hide_if_no_value": 0,
   "read_only": 0,
   "remember_last_selected_value": 0,
   "report_hide": 0,
   "reqd": 0,
   "search_index": 0,
   "set_only_once": 0,
   "unique": 0
  },
  {
   "allow_on_submit": 0,
   "bold": 1,
   "collapsible": 0,
   "columns": 0,
   "default": "500",
   "description": "Max 500 records at a time",
   "fieldname": "limit",
   "fieldtype": "Int",
   "hidden": 0,
   "ignore_user_permissions": 0,
   "ignore_xss_filter": 0,
   "in_filter": 0,
   "in_list_view": 0,
   "in_standard_filter": 0,
   "label": "Limit",
   "length": 0,
   "no_copy": 0,
   "permlevel": 0,
   "precision": "",
   "print_hide": 0,
   "print_hide_if_no_value": 0,
   "read_only": 0,
   "remember_last_selected_value": 0,
   "report_hide": 0,
   "reqd": 0,
   "search_index": 0,
   "set_only_once": 0,
   "unique": 0
  }
 ],
 "issingle": 1,
 "links": [],
 "modified": "2024-03-23 16:01:29.575802",
 "modified_by": "Administrator",
 "module": "Desk",
 "name": "Bulk Update",
 "owner": "Administrator",
 "permissions": [
  {
   "amend": 0,
   "apply_user_permissions": 0,
   "cancel": 0,
   "create": 1,
   "delete": 1,
   "email": 1,
   "export": 0,
   "if_owner": 0,
   "import": 0,
   "is_custom": 0,
   "permlevel": 0,
   "print": 1,
   "read": 1,
   "report": 0,
   "role": "System Manager",
   "set_user_permissions": 0,
   "share": 1,
   "submit": 0,
   "write": 1
  }
 ],
 "quick_entry": 1,
 "sort_field": "creation",
 "sort_order": "DESC",
 "states": [],
 "track_changes": 1
}
