{
 "actions": [],
 "allow_rename": 1,
 "creation": "2021-12-06 16:37:40.652468",
 "doctype": "DocType",
 "editable_grid": 1,
 "engine": "InnoDB",
 "field_order": [
  "attachment"
 ],
 "fields": [
  {
   "fieldname": "attachment",
   "fieldtype": "Attach",
   "in_list_view": 1,
   "label": "Attachment",
   "reqd": 1
  }
 ],
 "index_web_pages_for_search": 1,
 "istable": 1,
 "links": [],
 "modified": "2024-03-23 16:03:31.101104",
 "modified_by": "Administrator",
 "module": "Email",
 "name": "Newsletter Attachment",
 "owner": "Administrator",
 "permissions": [],
 "sort_field": "creation",
 "sort_order": "DESC",
 "states": []
}
