{
 "actions": [],
 "creation": "2020-07-15 22:08:14.616585",
 "doctype": "DocType",
 "editable_grid": 1,
 "engine": "InnoDB",
 "field_order": [
  "scope"
 ],
 "fields": [
  {
   "fieldname": "scope",
   "fieldtype": "Data",
   "in_list_view": 1,
   "label": "Scope"
  }
 ],
 "istable": 1,
 "links": [],
 "modified": "2024-03-23 16:03:32.890426",
 "modified_by": "Administrator",
 "module": "Integrations",
 "name": "OAuth Scope",
 "owner": "Administrator",
 "permissions": [],
 "quick_entry": 1,
 "sort_field": "creation",
 "sort_order": "DESC",
 "states": [],
 "track_changes": 1
}
